P&C Pricing Tutorial
…
They seem balanced across the dataset, we dont have classes with very low exposure.

Lets now evaluate actuarial KPIs for each predictor:

region, sex, age_range, vehicle_age, make, vehicle_category

## # A tibble: 42 x 7
##    region                exposure   amounts numbers    lc  freq   sev
##    <fct>                    <dbl>     <dbl>   <dbl> <dbl> <dbl> <dbl>
##  1 AC - Acre                6670    5478323    1338  821. 0.201 4094.
##  2 AL - Alagoas            51956.  40331443    8162  776. 0.157 4941.
##  3 AM - Amazonas           30080   20441172    5771  680. 0.192 3542.
##  4 AP - Amap               4288.   2690357     562  627. 0.131 4787.
##  5 BA - Bahia             255620  211475059   48360  827. 0.189 4373.
##  6 CE - Cear             126476.  83598461   21738  661. 0.172 3846.
##  7 DF - Braslia          193863  131960940   42548  681. 0.219 3101.
##  8 ES - Esprito Santo    118896. 100518348   27808  845. 0.234 3615.
##  9 GO - Gois             208920. 174617047   40263  836. 0.193 4337.
## 10 GO - Sudeste de Gois   21759   21506963    3393  988. 0.156 6339.
## #  with 32 more rows
…
## # A tibble: 6 x 7
##   age_range          exposure    amounts numbers    lc  freq   sev
##   <fct>                 <dbl>      <dbl>   <dbl> <dbl> <dbl> <dbl>
## 1 Entre 18 e 25 anos  260722.  234497150   58016  899. 0.223 4042.
## 2 Entre 26 e 35 anos 1446656. 1169970980  342076  809. 0.236 3420.
## 3 Entre 36 e 45 anos 1591338. 1203931825  404622  757. 0.254 2975.
## 4 Entre 46 e 55 anos 1531898. 1129765424  397577  737. 0.260 2842.
## 5 Maior que 55 anos  1603678. 1039549034  458443  648. 0.286 2268.
## 6 No informada       811194.  828137479  125619 1021. 0.155 6592.

## # A tibble: 36 x 7
##    vehicle_age exposure    amounts numbers    lc  freq   sev
##          <dbl>    <dbl>      <dbl>   <dbl> <dbl> <dbl> <dbl>
##  1           0 1028590.  851055099  186674  827. 0.181 4559.
##  2           1 1361562. 1219702619  297536  896. 0.219 4099.
##  3           2 1150088.  980755706  287491  853. 0.250 3411.
##  4           3  814422.  638516990  213527  784. 0.262 2990.
##  5           4  805592.  624426159  216654  775. 0.269 2882.
##  6           5  470036   348761906  130935  742. 0.279 2664.
##  7           6  318891   226712484   85185  711. 0.267 2661.
##  8           7  287514.  187017855   78298  650. 0.272 2389.
##  9           8  209288.  134723044   56271  644. 0.269 2394.
## 10           9  173414.  101334379   47608  584. 0.275 2129.
## #  with 26 more rows
…
